<svg version="1.1" baseProfile="full" width="1985.75" height="216" viewbox="0 0 1985.75 216" xmlns="http://www.w3.org/2000/svg" xmlns:xlink="http://www.w3.org/1999/xlink" xmlns:ev="http://www.w3.org/2001/xml-events" style="font-weight:bold; font-size:8pt; font-family:'Calibri', Helvetica, sans-serif;;stroke-width:3;stroke-linejoin:round;stroke-linecap:round">
  <title >nomnoml</title>
  <desc >#spacing: 20
#fontSize: 8
#arrowSize: 1
#bendSize: 0.3
#ranker: longest-path

#.final: visual=ellipse bold fill=#fff
[&lt;final&gt; serie_latent]
[&lt;final&gt; user_latent]
[&lt;final&gt; collection_series_latent]
[&lt;final&gt; collection_genres_latent]
[&lt;final&gt; user_audiences_users_latent]
[&lt;final&gt; user_audiences_genres_latent]
[&lt;final&gt; user_history_short]
[&lt;final&gt; user_history_long]
[&lt;final&gt; user_serie_history]


[mange_genre] -&gt; [genre_latent]
[serie_latent] -&gt; [genre_latent]

[collection_serie] -&gt; [collection_series_latent]
[serie_latent] -&gt; [collection_series_latent]

[collection| key_genre] -&gt; [collection_genres_latent]
[genre_latent] -&gt; [collection_genres_latent]

[audience_query] -&gt; [audience_genres_latent]
[genre_latent] -&gt; [audience_genres_latent]

[audience_user] -&gt; [audience_users_latent]
[user_latent] -&gt; [audience_users_latent]

[audience_user] -&gt; [user_audiences_users_latent]
[audience_users_latent] -&gt; [user_audiences_users_latent]

[audience_user] -&gt; [user_audiences_genres_latent]
[audience_genres_latent] -&gt; [user_audiences_genres_latent]

[events] -&gt; [session_event]

[serie_latent] -&gt; [user_history_long]
[readActivity] -&gt; [user_history_long]

[serie_latent] -&gt; [user_history_short]
[events] -&gt; [user_history_short]

[readActivity] -&gt; [user_serie_history]
[events] -&gt; [user_serie_history]</desc>
  <path d="M353.8 39.5 L353.8 49.5 L353.8 59.5 L353.8 59.5 " style="stroke:#33322E;fill:none;stroke-dasharray:none;"></path>
  <path d="M351.1 52.8 L353.8 56.2 L356.4 52.8 L353.8 59.5 Z" style="stroke:#33322E;fill:#33322E;stroke-dasharray:none;"></path>
  <path d="M865.8 32.7 L688.5 49.5 L418.8 68 L418.8 68 " style="stroke:#33322E;fill:none;stroke-dasharray:none;"></path>
  <path d="M425.2 64.9 L422.1 67.8 L425.6 70.2 L418.8 68 Z" style="stroke:#33322E;fill:#33322E;stroke-dasharray:none;"></path>
  <path d="M701.3 144.5 L701.3 167.5 L723.9 177.5 L723.9 177.5 " style="stroke:#33322E;fill:none;stroke-dasharray:none;"></path>
  <path d="M716.7 177.2 L720.8 176.2 L718.8 172.4 L723.9 177.5 Z" style="stroke:#33322E;fill:#33322E;stroke-dasharray:none;"></path>
  <path d="M890.1 39.5 L858.8 49.5 L858.8 72.5 L858.8 72.5 L858.8 95.5 L858.8 95.5 L858.8 131.5 L858.8 131.5 L858.8 167.5 L858.8 167.5 L812.9 177.5 L812.9 177.5 " style="stroke:#33322E;fill:none;stroke-dasharray:none;"></path>
  <path d="M818.8 173.5 L816.1 176.8 L820 178.7 L812.9 177.5 Z" style="stroke:#33322E;fill:#33322E;stroke-dasharray:none;"></path>
  <path d="M97.8 157.5 L97.8 167.5 L114.2 177.5 L114.2 177.5 " style="stroke:#33322E;fill:none;stroke-dasharray:none;"></path>
  <path d="M107.1 176.3 L111.3 175.8 L109.9 171.8 L114.2 177.5 Z" style="stroke:#33322E;fill:#33322E;stroke-dasharray:none;"></path>
  <path d="M302.7 85.5 L263.5 95.5 L263.5 131.5 L263.5 131.5 L263.5 167.5 L263.5 167.5 L207.8 177.5 L207.8 177.5 " style="stroke:#33322E;fill:none;stroke-dasharray:none;"></path>
  <path d="M213.9 173.7 L211.1 176.9 L214.9 178.9 L207.8 177.5 Z" style="stroke:#33322E;fill:#33322E;stroke-dasharray:none;"></path>
  <path d="M462.2 85.5 L423 95.5 L462.5 118.5 L462.5 118.5 " style="stroke:#33322E;fill:none;stroke-dasharray:none;"></path>
  <path d="M455.3 117.4 L459.6 116.8 L458 112.8 L462.5 118.5 Z" style="stroke:#33322E;fill:#33322E;stroke-dasharray:none;"></path>
  <path d="M418.8 77 L688.5 95.5 L558.3 118.5 L558.3 118.5 " style="stroke:#33322E;fill:none;stroke-dasharray:none;"></path>
  <path d="M564.4 114.7 L561.6 117.9 L565.4 120 L558.3 118.5 Z" style="stroke:#33322E;fill:#33322E;stroke-dasharray:none;"></path>
  <path d="M1050 76.4 L1395.8 95.5 L1462.8 118.5 L1462.8 118.5 " style="stroke:#33322E;fill:none;stroke-dasharray:none;"></path>
  <path d="M1455.7 118.9 L1459.7 117.4 L1457.4 113.8 L1462.8 118.5 Z" style="stroke:#33322E;fill:#33322E;stroke-dasharray:none;"></path>
  <path d="M1510.8 85.5 L1510.8 95.5 L1504.4 118.5 L1504.4 118.5 " style="stroke:#33322E;fill:none;stroke-dasharray:none;"></path>
  <path d="M1503.6 111.4 L1505.3 115.3 L1508.7 112.8 L1504.4 118.5 Z" style="stroke:#33322E;fill:#33322E;stroke-dasharray:none;"></path>
  <path d="M1050 77.2 L1321.8 95.5 L1321.8 131.5 L1321.8 131.5 L1321.8 167.5 L1321.8 167.5 L1371.8 177.5 L1371.8 177.5 " style="stroke:#33322E;fill:none;stroke-dasharray:none;"></path>
  <path d="M1364.7 178.8 L1368.5 176.8 L1365.7 173.6 L1371.8 177.5 Z" style="stroke:#33322E;fill:#33322E;stroke-dasharray:none;"></path>
  <path d="M1500.8 144.5 L1500.8 167.5 L1472.9 177.5 L1472.9 177.5 " style="stroke:#33322E;fill:none;stroke-dasharray:none;"></path>
  <path d="M1478.3 172.7 L1476.1 176.4 L1480.1 177.8 L1472.9 177.5 Z" style="stroke:#33322E;fill:#33322E;stroke-dasharray:none;"></path>
  <path d="M910 74.8 L287 95.5 L287 131.5 L287 131.5 L287 167.5 L287 167.5 L344.2 177.5 L344.2 177.5 " style="stroke:#33322E;fill:none;stroke-dasharray:none;"></path>
  <path d="M337.1 179 L340.9 176.9 L338.1 173.7 L344.2 177.5 Z" style="stroke:#33322E;fill:#33322E;stroke-dasharray:none;"></path>
  <path d="M484.8 144.5 L484.8 167.5 L455.9 177.5 L455.9 177.5 " style="stroke:#33322E;fill:none;stroke-dasharray:none;"></path>
  <path d="M461.4 172.8 L459.1 176.4 L463.1 177.8 L455.9 177.5 Z" style="stroke:#33322E;fill:#33322E;stroke-dasharray:none;"></path>
  <path d="M1702.3 144.5 L1696.3 167.5 L1696.3 177.5 L1696.3 177.5 " style="stroke:#33322E;fill:none;stroke-dasharray:none;"></path>
  <path d="M1693.6 170.8 L1696.3 174.2 L1698.9 170.8 L1696.3 177.5 Z" style="stroke:#33322E;fill:#33322E;stroke-dasharray:none;"></path>
  <path d="M901.4 39.5 L878.8 49.5 L878.8 72.5 L878.8 72.5 L878.8 95.5 L878.8 95.5 L878.8 131.5 L878.8 131.5 L878.8 167.5 L878.8 167.5 L924.6 177.5 L924.6 177.5 " style="stroke:#33322E;fill:none;stroke-dasharray:none;"></path>
  <path d="M917.5 178.7 L921.4 176.8 L918.7 173.5 L924.6 177.5 Z" style="stroke:#33322E;fill:#33322E;stroke-dasharray:none;"></path>
  <path d="M1168.1 144.5 L1075.5 167.5 L1035.8 177.5 L1035.8 177.5 " style="stroke:#33322E;fill:none;stroke-dasharray:none;"></path>
  <path d="M1041.6 173.3 L1039.1 176.7 L1042.9 178.5 L1035.8 177.5 Z" style="stroke:#33322E;fill:#33322E;stroke-dasharray:none;"></path>
  <path d="M995.8 35.6 L1095.5 49.5 L1095.5 72.5 L1095.5 72.5 L1095.5 95.5 L1095.5 95.5 L1095.5 131.5 L1095.5 131.5 L1095.5 167.5 L1095.5 167.5 L1135.2 177.5 L1135.2 177.5 " style="stroke:#33322E;fill:none;stroke-dasharray:none;"></path>
  <path d="M1128.1 178.5 L1131.9 176.7 L1129.4 173.3 L1135.2 177.5 Z" style="stroke:#33322E;fill:#33322E;stroke-dasharray:none;"></path>
  <path d="M1669.3 134.8 L1301.8 167.5 L1251.8 177.5 L1251.8 177.5 " style="stroke:#33322E;fill:none;stroke-dasharray:none;"></path>
  <path d="M1257.8 173.6 L1255 176.8 L1258.8 178.8 L1251.8 177.5 Z" style="stroke:#33322E;fill:#33322E;stroke-dasharray:none;"></path>
  <path d="M1285.5 135.6 L1798 167.5 L1833.5 177.5 L1833.5 177.5 " style="stroke:#33322E;fill:none;stroke-dasharray:none;"></path>
  <path d="M1826.4 178.3 L1830.3 176.6 L1827.8 173.1 L1833.5 177.5 Z" style="stroke:#33322E;fill:#33322E;stroke-dasharray:none;"></path>
  <path d="M1742.3 138.6 L1889.8 167.5 L1885.4 177.5 L1885.4 177.5 " style="stroke:#33322E;fill:none;stroke-dasharray:none;"></path>
  <path d="M1885.6 170.3 L1886.7 174.4 L1890.5 172.4 L1885.4 177.5 Z" style="stroke:#33322E;fill:#33322E;stroke-dasharray:none;"></path>
  <rect x="42.5" y="105.5" height="52" width="111" style="stroke:#33322E;fill:#eee8d5;stroke-dasharray:none;"></rect>
  <text x="98" y="122.5" style="fill: #33322E;text-anchor: middle;">collection</text>
  <path d="M42.5 131.5 L153.5 131.5" style="stroke:#33322E;fill:none;stroke-dasharray:none;"></path>
  <text x="50.5" y="148.5" style="fill: #33322E;font-weight:normal;">key_genre</text>
  <ellipse cx="930.8" cy="26.5" rx="65" ry="13" style="stroke:#33322E;fill:#fff;stroke-dasharray:none;"></ellipse>
  <text x="930.5" y="30.5" style="fill: #33322E;text-anchor: middle;">serie_latent</text>
  <ellipse cx="1510.8" cy="72.5" rx="60.5" ry="13" style="stroke:#33322E;fill:#fff;stroke-dasharray:none;"></ellipse>
  <text x="1511" y="76.5" style="fill: #33322E;text-anchor: middle;">user_latent</text>
  <ellipse cx="753.3" cy="190.5" rx="122" ry="13" style="stroke:#33322E;fill:#fff;stroke-dasharray:none;"></ellipse>
  <text x="753.5" y="194.5" style="fill: #33322E;text-anchor: middle;">collection_series_latent</text>
  <ellipse cx="135.5" cy="190.5" rx="122" ry="13" style="stroke:#33322E;fill:#fff;stroke-dasharray:none;"></ellipse>
  <text x="135.5" y="194.5" style="fill: #33322E;text-anchor: middle;">collection_genres_latent</text>
  <ellipse cx="1436.8" cy="190.5" rx="136.5" ry="13" style="stroke:#33322E;fill:#fff;stroke-dasharray:none;"></ellipse>
  <text x="1437" y="194.5" style="fill: #33322E;text-anchor: middle;">user_audiences_users_latent</text>
  <ellipse cx="418.5" cy="190.5" rx="141" ry="13" style="stroke:#33322E;fill:#fff;stroke-dasharray:none;"></ellipse>
  <text x="418.5" y="194.5" style="fill: #33322E;text-anchor: middle;">user_audiences_genres_latent</text>
  <ellipse cx="1186.8" cy="190.5" rx="93.5" ry="13" style="stroke:#33322E;fill:#fff;stroke-dasharray:none;"></ellipse>
  <text x="1187" y="194.5" style="fill: #33322E;text-anchor: middle;">user_history_short</text>
  <ellipse cx="984.3" cy="190.5" rx="89" ry="13" style="stroke:#33322E;fill:#fff;stroke-dasharray:none;"></ellipse>
  <text x="984.5" y="194.5" style="fill: #33322E;text-anchor: middle;">user_history_long</text>
  <ellipse cx="1879.8" cy="190.5" rx="93.5" ry="13" style="stroke:#33322E;fill:#fff;stroke-dasharray:none;"></ellipse>
  <text x="1880" y="194.5" style="fill: #33322E;text-anchor: middle;">user_serie_history</text>
  <rect x="293.5" y="13.5" height="26" width="121" style="stroke:#33322E;fill:#eee8d5;stroke-dasharray:none;"></rect>
  <text x="354" y="30.5" style="fill: #33322E;text-anchor: middle;">mange_genre</text>
  <rect x="288.5" y="59.5" height="26" width="130" style="stroke:#33322E;fill:#eee8d5;stroke-dasharray:none;"></rect>
  <text x="353.5" y="76.5" style="fill: #33322E;text-anchor: middle;">genre_latent</text>
  <rect x="617.5" y="118.5" height="26" width="168" style="stroke:#33322E;fill:#eee8d5;stroke-dasharray:none;"></rect>
  <text x="701.5" y="135.5" style="fill: #33322E;text-anchor: middle;">collection_serie</text>
  <rect x="438.5" y="59.5" height="26" width="149" style="stroke:#33322E;fill:#eee8d5;stroke-dasharray:none;"></rect>
  <text x="513" y="76.5" style="fill: #33322E;text-anchor: middle;">audience_query</text>
  <rect x="372.5" y="118.5" height="26" width="225" style="stroke:#33322E;fill:#eee8d5;stroke-dasharray:none;"></rect>
  <text x="485" y="135.5" style="fill: #33322E;text-anchor: middle;">audience_genres_latent</text>
  <rect x="910.5" y="59.5" height="26" width="140" style="stroke:#33322E;fill:#eee8d5;stroke-dasharray:none;"></rect>
  <text x="980.5" y="76.5" style="fill: #33322E;text-anchor: middle;">audience_user</text>
  <rect x="1392.5" y="118.5" height="26" width="216" style="stroke:#33322E;fill:#eee8d5;stroke-dasharray:none;"></rect>
  <text x="1500.5" y="135.5" style="fill: #33322E;text-anchor: middle;">audience_users_latent</text>
  <rect x="1669.5" y="118.5" height="26" width="73" style="stroke:#33322E;fill:#eee8d5;stroke-dasharray:none;"></rect>
  <text x="1706" y="135.5" style="fill: #33322E;text-anchor: middle;">events</text>
  <rect x="1626.5" y="177.5" height="26" width="140" style="stroke:#33322E;fill:#eee8d5;stroke-dasharray:none;"></rect>
  <text x="1696.5" y="194.5" style="fill: #33322E;text-anchor: middle;">session_event</text>
  <rect x="1155.5" y="118.5" height="26" width="130" style="stroke:#33322E;fill:#eee8d5;stroke-dasharray:none;"></rect>
  <text x="1220.5" y="135.5" style="fill: #33322E;text-anchor: middle;">readActivity</text>
</svg>