{
    "train_input_feed":"ultra.input_layer.ClickSimulationFeed",
    "train_input_hparams":"",
    "valid_input_feed":"ultra.input_layer.DirectLabelFeed",
    "valid_input_hparams":"",
    "test_input_feed":"ultra.input_layer.DirectLabelFeed",
    "test_input_hparams":"",

    "ranking_model":"ultra.ranking_model.DeepFM",
    "ranking_model_hparams":"hidden_layer_sizes=[512, 256, 128]",

    "learning_algorithm": "ultra.learning_algorithm.DeepPropDCG",
    "learning_algorithm_hparams":"",

    "metrics": [
        "mrr", "ndcg"
    ],
    "metrics_topn" : [3,5,10],
    "objective_metric": ""
}